%YAML 1.1
%TAG !u! tag:unity3d.com,2011:
--- !u!114 &11400000
MonoBehaviour:
  m_ObjectHideFlags: 0
  m_CorrespondingSourceObject: {fileID: 0}
  m_PrefabInstance: {fileID: 0}
  m_PrefabAsset: {fileID: 0}
  m_GameObject: {fileID: 0}
  m_Enabled: 1
  m_EditorHideFlags: 0
  m_Script: {fileID: 11500000, guid: 1a7a3342e0e97ab42a866320557a91c3, type: 3}
  m_Name: UIDrawerSettings
  m_EditorClassIdentifier: 
  database: {fileID: 11400000, guid: 13cebffb9c1f741708f940c4d36624aa, type: 2}
  CloseDirection: 1
  CustomStartAnchoredPosition: {x: 0, y: 0, z: 0}
  DetectGestures: 1
  UseCustomStartAnchoredPosition: 1
  CloseSpeed: 10
  OpenSpeed: 10
  RenamePrefix: 'Drawer - '
  RenameSuffix: 
